Manipulating and analyzing data with dplyr; Exporting data
…
## # A tibble: 3  2
##      sex mean_weight
##   <fctr>       <dbl>
## 1           64.74257
## 2      F    42.17055
## 3      M    42.99538

You can group by multiple columns too:

surveys %>%
  group_by(sex, species_id) %>%
  summarize(mean_weight = mean(weight, na.rm = TRUE))

## Source: local data frame [92 x 3]
## Groups: sex [?]
## 
##       sex species_id mean_weight
##    <fctr>     <fctr>       <dbl>
## 1                 AB         NaN
## 2                 AH         NaN
## 3                 AS         NaN
## 4                 BA         NaN
## 5                 CB         NaN
## 6                 CM         NaN
## 7                 CQ         NaN
## 8                 CS         NaN
## 9                 CT         NaN
## 10                CU         NaN
## # ... with 82 more rows

When grouping both by sex and species_id, the first rows are for individuals that escaped before their sex could be determined and weighted. You may notice that the last column does not contain NA but NaN (which refers to Not a Number). To avoid this, we can remove the missing values for weight before we attempt to calculate the summary statistics on weight. Because the missing values are removed, we can omit na.rm=TRUE when computing the mean:

surveys %>%
  filter(!is.na(weight)) %>%
  group_by(sex, species_id) %>%
  summarize(mean_weight = mean(weight))

## Source: local data frame [64 x 3]
## Groups: sex [?]
## 
##       sex species_id mean_weight
##    <fctr>     <fctr>       <dbl>
## 1                 DM    38.28571
## 2                 DO    50.66667
## 3                 DS   120.00000
## 4                 NL   167.68750
## 5                 OL    29.00000
## 6                 OT    21.20000
## 7                 PB    30.60000
## 8                 PE    17.66667
## 9                 PF     6.00000
## 10                PI    18.00000
## # ... with 54 more rows

You may also have noticed, that the output from these calls dont run off the screen anymore. Thats because dplyr has changed our data.frame to a tbl_df. This is a data structure thats very similar to a data frame; for our purposes the only difference is that it wont automatically show tons of data going off the screen, while displaying the data type for each column under its name. If you want to display more data on the screen, you can add the print() function at the end with the argument n specifying the number of rows to display:

surveys %>%
  filter(!is.na(weight)) %>%
  group_by(sex, species_id) %>%
  summarize(mean_weight = mean(weight)) %>%
  print(n=15)

## Source: local data frame [64 x 3]
## Groups: sex [?]
## 
##       sex species_id mean_weight
##    <fctr>     <fctr>       <dbl>
## 1                 DM    38.28571
## 2                 DO    50.66667
## 3                 DS   120.00000
## 4                 NL   167.68750
## 5                 OL    29.00000
## 6                 OT    21.20000
## 7                 PB    30.60000
## 8                 PE    17.66667
## 9                 PF     6.00000
## 10                PI    18.00000
## 11                PL    25.00000
## 12                PM    20.25000
## 13                PP    14.60000
## 14                RM    11.08333
## 15                SF    40.50000
## # ... with 49 more rows

Once the data is grouped, you can also summarize multiple variables at the same time (and not necessarily on the same variable). For instance, we could add a column indicating the minimum weight for each species for each sex:

surveys %>%
  filter(!is.na(weight)) %>%
  group_by(sex, species_id) %>%
  summarize(mean_weight = mean(weight),
            min_weight = min(weight))

## Source: local data frame [64 x 4]
## Groups: sex [?]
## 
##       sex species_id mean_weight min_weight
##    <fctr>     <fctr>       <dbl>      <int>
## 1                 DM    38.28571         24
## 2                 DO    50.66667         44
## 3                 DS   120.00000         78
## 4                 NL   167.68750         83
## 5                 OL    29.00000         21
## 6                 OT    21.20000         18
## 7                 PB    30.60000         20
## 8                 PE    17.66667         17
## 9                 PF     6.00000          4
## 10                PI    18.00000         18
## # ... with 54 more rows
…
